EGM
…
k = raw_data[raw_data$pension_fund_company == 'Aegon Emeklilik ve Hayat' ,c(1,2,3)] %>% arrange(desc(n_of_participants)) 
print(k)

## # A tibble: 76 x 3
##    date       pension_fund_company     n_of_participants
##    <chr>      <chr>                                <dbl>
##  1 06.01.2017 Aegon Emeklilik ve Hayat             42826
##  2 13.01.2017 Aegon Emeklilik ve Hayat             42790
##  3 31.01.2017 Aegon Emeklilik ve Hayat             42737
##  4 20.01.2017 Aegon Emeklilik ve Hayat             42733
##  5 03.02.2017 Aegon Emeklilik ve Hayat             42722
##  6 27.01.2017 Aegon Emeklilik ve Hayat             42686
##  7 10.02.2017 Aegon Emeklilik ve Hayat             42619
##  8 17.02.2017 Aegon Emeklilik ve Hayat             42559
##  9 28.02.2017 Aegon Emeklilik ve Hayat             42506
## 10 24.02.2017 Aegon Emeklilik ve Hayat             42483
## # ... with 66 more rows
…
